%YAML 1.1
%TAG !u! tag:unity3d.com,2011:
--- !u!74 &7400000
AnimationClip:
  m_ObjectHideFlags: 0
  m_CorrespondingSourceObject: {fileID: 0}
  m_PrefabInstance: {fileID: 0}
  m_PrefabAsset: {fileID: 0}
  m_Name: SpellAtack
  serializedVersion: 6
  m_Legacy: 0
  m_Compressed: 0
  m_UseHighQualityCurve: 1
  m_RotationCurves: []
  m_CompressedRotationCurves: []
  m_EulerCurves: []
  m_PositionCurves: []
  m_ScaleCurves: []
  m_FloatCurves: []
  m_PPtrCurves:
  - curve:
    - time: 0.016666668
      value: {fileID: 21300000, guid: d08cf5d259cd02e489c685aead97a6d0, type: 3}
    - time: 0.1
      value: {fileID: 21300000, guid: 19ef57b77a619e74db445a1a0e3a4727, type: 3}
    - time: 0.16666667
      value: {fileID: 21300000, guid: d603de472fecfc0498bc2a3fc2c5d16b, type: 3}
    - time: 0.23333333
      value: {fileID: 21300000, guid: 07a980015d69f4146b79b4130285e474, type: 3}
    - time: 0.28333333
      value: {fileID: 21300000, guid: 4321501a126abbe4b839d0dc10dc3c64, type: 3}
    - time: 0.35
      value: {fileID: 21300000, guid: 0cf9a8a9ffa68e8469704d2fbbe1362b, type: 3}
    - time: 0.41666666
      value: {fileID: 21300000, guid: 0aa979e5ad2af384e9354b7cbb3c6d06, type: 3}
    - time: 0.48333332
      value: {fileID: 21300000, guid: 9b5646a137ad0ab47a25039d8891ecce, type: 3}
    - time: 0.53333336
      value: {fileID: 21300000, guid: 60296175fde845d449370bd7190c13ca, type: 3}
    - time: 0.5833333
      value: {fileID: 21300000, guid: 18a052def8a2e614da56a59d30816b11, type: 3}
    - time: 0.81666666
      value: {fileID: 21300000, guid: 6cfd65eb124fc4e4bafbe33c32acc519, type: 3}
    - time: 0.8333333
      value: {fileID: 21300000, guid: 493b2b41edf0b3c4faf4ba1a4c01afea, type: 3}
    attribute: m_Sprite
    path: 
    classID: 212
    script: {fileID: 0}
  m_SampleRate: 60
  m_WrapMode: 0
  m_Bounds:
    m_Center: {x: 0, y: 0, z: 0}
    m_Extent: {x: 0, y: 0, z: 0}
  m_ClipBindingConstant:
    genericBindings:
    - serializedVersion: 2
      path: 0
      attribute: 0
      script: {fileID: 0}
      typeID: 212
      customType: 23
      isPPtrCurve: 1
    pptrCurveMapping:
    - {fileID: 21300000, guid: d08cf5d259cd02e489c685aead97a6d0, type: 3}
    - {fileID: 21300000, guid: 19ef57b77a619e74db445a1a0e3a4727, type: 3}
    - {fileID: 21300000, guid: d603de472fecfc0498bc2a3fc2c5d16b, type: 3}
    - {fileID: 21300000, guid: 07a980015d69f4146b79b4130285e474, type: 3}
    - {fileID: 21300000, guid: 4321501a126abbe4b839d0dc10dc3c64, type: 3}
    - {fileID: 21300000, guid: 0cf9a8a9ffa68e8469704d2fbbe1362b, type: 3}
    - {fileID: 21300000, guid: 0aa979e5ad2af384e9354b7cbb3c6d06, type: 3}
    - {fileID: 21300000, guid: 9b5646a137ad0ab47a25039d8891ecce, type: 3}
    - {fileID: 21300000, guid: 60296175fde845d449370bd7190c13ca, type: 3}
    - {fileID: 21300000, guid: 18a052def8a2e614da56a59d30816b11, type: 3}
    - {fileID: 21300000, guid: 6cfd65eb124fc4e4bafbe33c32acc519, type: 3}
    - {fileID: 21300000, guid: 493b2b41edf0b3c4faf4ba1a4c01afea, type: 3}
  m_AnimationClipSettings:
    serializedVersion: 2
    m_AdditiveReferencePoseClip: {fileID: 0}
    m_AdditiveReferencePoseTime: 0
    m_StartTime: 0
    m_StopTime: 0.84999996
    m_OrientationOffsetY: 0
    m_Level: 0
    m_CycleOffset: 0
    m_HasAdditiveReferencePose: 0
    m_LoopTime: 1
    m_LoopBlend: 0
    m_LoopBlendOrientation: 0
    m_LoopBlendPositionY: 0
    m_LoopBlendPositionXZ: 0
    m_KeepOriginalOrientation: 0
    m_KeepOriginalPositionY: 1
    m_KeepOriginalPositionXZ: 0
    m_HeightFromFeet: 0
    m_Mirror: 0
  m_EditorCurves: []
  m_EulerEditorCurves: []
  m_HasGenericRootTransform: 0
  m_HasMotionFloatCurves: 0
  m_Events:
  - time: 0.43333334
    functionName: spellDame
    data: 
    objectReferenceParameter: {fileID: 0}
    floatParameter: 0
    intParameter: 0
    messageOptions: 0
