%YAML 1.1
%TAG !u! tag:unity3d.com,2011:
--- !u!74 &7400000
AnimationClip:
  m_ObjectHideFlags: 0
  m_CorrespondingSourceObject: {fileID: 0}
  m_PrefabInstance: {fileID: 0}
  m_PrefabAsset: {fileID: 0}
  m_Name: Idle
  serializedVersion: 6
  m_Legacy: 0
  m_Compressed: 0
  m_UseHighQualityCurve: 1
  m_RotationCurves: []
  m_CompressedRotationCurves: []
  m_EulerCurves: []
  m_PositionCurves: []
  m_ScaleCurves: []
  m_FloatCurves: []
  m_PPtrCurves:
  - curve:
    - time: 0
      value: {fileID: 21300000, guid: 8205bf9c40f681b468a65147fec3a8fe, type: 3}
    - time: 0.1
      value: {fileID: 21300000, guid: e09e5bd4b1cab464492d644dbccc74f4, type: 3}
    - time: 0.2
      value: {fileID: 21300000, guid: e916baa129f954c499fc8f3b71d85263, type: 3}
    - time: 0.3
      value: {fileID: 21300000, guid: 888bc9cf42b03b34d95ad03941338985, type: 3}
    - time: 0.4
      value: {fileID: 21300000, guid: 8441f285e9bb4314f8f1ca42487bf876, type: 3}
    - time: 0.5
      value: {fileID: 21300000, guid: 51369f52504da934d882c81d3df538d1, type: 3}
    - time: 0.6
      value: {fileID: 21300000, guid: 75ec4486599406245818bb57102d4a46, type: 3}
    - time: 0.7
      value: {fileID: 21300000, guid: 8aea433b38289304fb7379bb811fb6ee, type: 3}
    attribute: m_Sprite
    path: 
    classID: 212
    script: {fileID: 0}
  m_SampleRate: 10
  m_WrapMode: 0
  m_Bounds:
    m_Center: {x: 0, y: 0, z: 0}
    m_Extent: {x: 0, y: 0, z: 0}
  m_ClipBindingConstant:
    genericBindings:
    - serializedVersion: 2
      path: 0
      attribute: 0
      script: {fileID: 0}
      typeID: 212
      customType: 23
      isPPtrCurve: 1
    pptrCurveMapping:
    - {fileID: 21300000, guid: 8205bf9c40f681b468a65147fec3a8fe, type: 3}
    - {fileID: 21300000, guid: e09e5bd4b1cab464492d644dbccc74f4, type: 3}
    - {fileID: 21300000, guid: e916baa129f954c499fc8f3b71d85263, type: 3}
    - {fileID: 21300000, guid: 888bc9cf42b03b34d95ad03941338985, type: 3}
    - {fileID: 21300000, guid: 8441f285e9bb4314f8f1ca42487bf876, type: 3}
    - {fileID: 21300000, guid: 51369f52504da934d882c81d3df538d1, type: 3}
    - {fileID: 21300000, guid: 75ec4486599406245818bb57102d4a46, type: 3}
    - {fileID: 21300000, guid: 8aea433b38289304fb7379bb811fb6ee, type: 3}
  m_AnimationClipSettings:
    serializedVersion: 2
    m_AdditiveReferencePoseClip: {fileID: 0}
    m_AdditiveReferencePoseTime: 0
    m_StartTime: 0
    m_StopTime: 0.8
    m_OrientationOffsetY: 0
    m_Level: 0
    m_CycleOffset: 0
    m_HasAdditiveReferencePose: 0
    m_LoopTime: 1
    m_LoopBlend: 0
    m_LoopBlendOrientation: 0
    m_LoopBlendPositionY: 0
    m_LoopBlendPositionXZ: 0
    m_KeepOriginalOrientation: 0
    m_KeepOriginalPositionY: 1
    m_KeepOriginalPositionXZ: 0
    m_HeightFromFeet: 0
    m_Mirror: 0
  m_EditorCurves: []
  m_EulerEditorCurves: []
  m_HasGenericRootTransform: 0
  m_HasMotionFloatCurves: 0
  m_Events: []
