%YAML 1.1
%TAG !u! tag:unity3d.com,2011:
--- !u!74 &7400000
AnimationClip:
  m_ObjectHideFlags: 0
  m_CorrespondingSourceObject: {fileID: 0}
  m_PrefabInstance: {fileID: 0}
  m_PrefabAsset: {fileID: 0}
  m_Name: Run
  serializedVersion: 6
  m_Legacy: 0
  m_Compressed: 0
  m_UseHighQualityCurve: 1
  m_RotationCurves: []
  m_CompressedRotationCurves: []
  m_EulerCurves: []
  m_PositionCurves: []
  m_ScaleCurves: []
  m_FloatCurves: []
  m_PPtrCurves:
  - curve:
    - time: 0
      value: {fileID: 21300000, guid: 1e778b3e509c4a94c84611f026a96b4a, type: 3}
    - time: 0.1
      value: {fileID: 21300000, guid: 88395a77434e4764599edcd7e404413a, type: 3}
    - time: 0.2
      value: {fileID: 21300000, guid: 260e60434cbf8614d8f67be72086020f, type: 3}
    - time: 0.3
      value: {fileID: 21300000, guid: 8eba4b51802f3a64c94c0a4bc59d3320, type: 3}
    - time: 0.4
      value: {fileID: 21300000, guid: ffaaec8d376cc30468d9863db0907607, type: 3}
    - time: 0.5
      value: {fileID: 21300000, guid: 92f608d8635e09b4594bcfa5dfa7d96e, type: 3}
    - time: 0.6
      value: {fileID: 21300000, guid: e1d1408ceb62e7d4cb7e536b0f9bf2e8, type: 3}
    - time: 0.7
      value: {fileID: 21300000, guid: 58f37be8e16f0414a912c4f748bc9e31, type: 3}
    attribute: m_Sprite
    path: 
    classID: 212
    script: {fileID: 0}
  m_SampleRate: 10
  m_WrapMode: 0
  m_Bounds:
    m_Center: {x: 0, y: 0, z: 0}
    m_Extent: {x: 0, y: 0, z: 0}
  m_ClipBindingConstant:
    genericBindings:
    - serializedVersion: 2
      path: 0
      attribute: 0
      script: {fileID: 0}
      typeID: 212
      customType: 23
      isPPtrCurve: 1
    pptrCurveMapping:
    - {fileID: 21300000, guid: 1e778b3e509c4a94c84611f026a96b4a, type: 3}
    - {fileID: 21300000, guid: 88395a77434e4764599edcd7e404413a, type: 3}
    - {fileID: 21300000, guid: 260e60434cbf8614d8f67be72086020f, type: 3}
    - {fileID: 21300000, guid: 8eba4b51802f3a64c94c0a4bc59d3320, type: 3}
    - {fileID: 21300000, guid: ffaaec8d376cc30468d9863db0907607, type: 3}
    - {fileID: 21300000, guid: 92f608d8635e09b4594bcfa5dfa7d96e, type: 3}
    - {fileID: 21300000, guid: e1d1408ceb62e7d4cb7e536b0f9bf2e8, type: 3}
    - {fileID: 21300000, guid: 58f37be8e16f0414a912c4f748bc9e31, type: 3}
  m_AnimationClipSettings:
    serializedVersion: 2
    m_AdditiveReferencePoseClip: {fileID: 0}
    m_AdditiveReferencePoseTime: 0
    m_StartTime: 0
    m_StopTime: 0.8
    m_OrientationOffsetY: 0
    m_Level: 0
    m_CycleOffset: 0
    m_HasAdditiveReferencePose: 0
    m_LoopTime: 1
    m_LoopBlend: 0
    m_LoopBlendOrientation: 0
    m_LoopBlendPositionY: 0
    m_LoopBlendPositionXZ: 0
    m_KeepOriginalOrientation: 0
    m_KeepOriginalPositionY: 1
    m_KeepOriginalPositionXZ: 0
    m_HeightFromFeet: 0
    m_Mirror: 0
  m_EditorCurves: []
  m_EulerEditorCurves: []
  m_HasGenericRootTransform: 0
  m_HasMotionFloatCurves: 0
  m_Events: []
