%YAML 1.1
%TAG !u! tag:unity3d.com,2011:
--- !u!74 &7400000
AnimationClip:
  m_ObjectHideFlags: 0
  m_CorrespondingSourceObject: {fileID: 0}
  m_PrefabInstance: {fileID: 0}
  m_PrefabAsset: {fileID: 0}
  m_Name: demon_attack
  serializedVersion: 6
  m_Legacy: 0
  m_Compressed: 0
  m_UseHighQualityCurve: 1
  m_RotationCurves: []
  m_CompressedRotationCurves: []
  m_EulerCurves: []
  m_PositionCurves: []
  m_ScaleCurves: []
  m_FloatCurves: []
  m_PPtrCurves:
  - curve:
    - time: 0
      value: {fileID: 21300000, guid: fc9bb17e8190c5245a75ad72ffdebccb, type: 3}
    - time: 0.1
      value: {fileID: 21300000, guid: 4e0447d95a1de604fa18fb83beceb797, type: 3}
    - time: 0.2
      value: {fileID: 21300000, guid: 3fc11f80051aa1a4f89ff850592e7478, type: 3}
    - time: 0.3
      value: {fileID: 21300000, guid: ecf3c5d4a61123740ab657935e316aa0, type: 3}
    - time: 0.4
      value: {fileID: 21300000, guid: 7c9a3131bb735164e9ee41cafc5b7c51, type: 3}
    - time: 0.5
      value: {fileID: 21300000, guid: 35b955fc3e72f1a46a7a4dc30c89ab60, type: 3}
    - time: 0.6
      value: {fileID: 21300000, guid: bd7e46c3e071a864dafdca55536bbd42, type: 3}
    - time: 0.7
      value: {fileID: 21300000, guid: 26ffe3e378f270a48b19f35e5623ea66, type: 3}
    - time: 0.8
      value: {fileID: 21300000, guid: ee679a9daa8e8034fa37e89370f1cffa, type: 3}
    - time: 0.9
      value: {fileID: 21300000, guid: 2ac7a511eaa9402459de99de87d96dd7, type: 3}
    - time: 1
      value: {fileID: 21300000, guid: ed09e9c2b73b5334592bc67b3bb89a5a, type: 3}
    - time: 1.1
      value: {fileID: 21300000, guid: d257fb6e0662c3f4cbe5ac952830c9c8, type: 3}
    - time: 1.2
      value: {fileID: 21300000, guid: 9f0c0bad02736d648be71d6f79a4f51f, type: 3}
    - time: 1.3
      value: {fileID: 21300000, guid: 09dc29590c360b14e8c031f34584e4d9, type: 3}
    - time: 1.4
      value: {fileID: 21300000, guid: b1c44e0a2f5f88c4894a564a61b47d01, type: 3}
    attribute: m_Sprite
    path: 
    classID: 212
    script: {fileID: 0}
  m_SampleRate: 10
  m_WrapMode: 0
  m_Bounds:
    m_Center: {x: 0, y: 0, z: 0}
    m_Extent: {x: 0, y: 0, z: 0}
  m_ClipBindingConstant:
    genericBindings:
    - serializedVersion: 2
      path: 0
      attribute: 0
      script: {fileID: 0}
      typeID: 212
      customType: 23
      isPPtrCurve: 1
    pptrCurveMapping:
    - {fileID: 21300000, guid: fc9bb17e8190c5245a75ad72ffdebccb, type: 3}
    - {fileID: 21300000, guid: 4e0447d95a1de604fa18fb83beceb797, type: 3}
    - {fileID: 21300000, guid: 3fc11f80051aa1a4f89ff850592e7478, type: 3}
    - {fileID: 21300000, guid: ecf3c5d4a61123740ab657935e316aa0, type: 3}
    - {fileID: 21300000, guid: 7c9a3131bb735164e9ee41cafc5b7c51, type: 3}
    - {fileID: 21300000, guid: 35b955fc3e72f1a46a7a4dc30c89ab60, type: 3}
    - {fileID: 21300000, guid: bd7e46c3e071a864dafdca55536bbd42, type: 3}
    - {fileID: 21300000, guid: 26ffe3e378f270a48b19f35e5623ea66, type: 3}
    - {fileID: 21300000, guid: ee679a9daa8e8034fa37e89370f1cffa, type: 3}
    - {fileID: 21300000, guid: 2ac7a511eaa9402459de99de87d96dd7, type: 3}
    - {fileID: 21300000, guid: ed09e9c2b73b5334592bc67b3bb89a5a, type: 3}
    - {fileID: 21300000, guid: d257fb6e0662c3f4cbe5ac952830c9c8, type: 3}
    - {fileID: 21300000, guid: 9f0c0bad02736d648be71d6f79a4f51f, type: 3}
    - {fileID: 21300000, guid: 09dc29590c360b14e8c031f34584e4d9, type: 3}
    - {fileID: 21300000, guid: b1c44e0a2f5f88c4894a564a61b47d01, type: 3}
  m_AnimationClipSettings:
    serializedVersion: 2
    m_AdditiveReferencePoseClip: {fileID: 0}
    m_AdditiveReferencePoseTime: 0
    m_StartTime: 0
    m_StopTime: 1.5
    m_OrientationOffsetY: 0
    m_Level: 0
    m_CycleOffset: 0
    m_HasAdditiveReferencePose: 0
    m_LoopTime: 1
    m_LoopBlend: 0
    m_LoopBlendOrientation: 0
    m_LoopBlendPositionY: 0
    m_LoopBlendPositionXZ: 0
    m_KeepOriginalOrientation: 0
    m_KeepOriginalPositionY: 1
    m_KeepOriginalPositionXZ: 0
    m_HeightFromFeet: 0
    m_Mirror: 0
  m_EditorCurves: []
  m_EulerEditorCurves: []
  m_HasGenericRootTransform: 0
  m_HasMotionFloatCurves: 0
  m_Events:
  - time: 1.2
    functionName: Attack
    data: 
    objectReferenceParameter: {fileID: 0}
    floatParameter: 0
    intParameter: 0
    messageOptions: 0
