{
  "BurstVersion": "ed7d93ab-72ae-4d46-9fc9-027b31698d75",
  "Assemblies": [
    {
      "FullName": "UnityEngine.CoreModule, Version=0.0.0.0, Culture=neutral, PublicKeyToken=null",
      "LastWriteTime": "2023-03-07T23:40:42Z"
    },
    {
      "FullName": "PsdPlugin, Version=0.0.0.0, Culture=neutral, PublicKeyToken=null",
      "LastWriteTime": "2023-06-05T15:16:20.7894714Z"
    },
    {
      "FullName": "mscorlib, Version=0.0.0.0, Culture=neutral, PublicKeyToken=null",
      "LastWriteTime": "2023-03-07T23:12:58Z"
    },
    {
      "FullName": "mscorlib, Version=4.0.0.0, Culture=neutral, PublicKeyToken=b77a5c561934e089",
      "LastWriteTime": "2023-03-07T23:12:58Z"
    },
    {
      "FullName": "Unity.2D.Animation.Editor, Version=0.0.0.0, Culture=neutral, PublicKeyToken=null",
      "LastWriteTime": "2023-06-05T15:16:20.7984466Z"
    },
    {
      "FullName": "Unity.2D.Common.Runtime, Version=0.0.0.0, Culture=neutral, PublicKeyToken=null",
      "LastWriteTime": "2023-06-05T15:16:20.8084203Z"
    },
    {
      "FullName": "Unity.Mathematics, Version=1.0.0.0, Culture=neutral, PublicKeyToken=null",
      "LastWriteTime": "2023-06-05T15:16:20.8868788Z"
    },
    {
      "FullName": "netstandard, Version=2.1.0.0, Culture=neutral, PublicKeyToken=cc7b13ffcd2ddd51",
      "LastWriteTime": "2023-03-07T23:13:00Z"
    },
    {
      "FullName": "Unity.Burst, Version=0.0.0.0, Culture=neutral, PublicKeyToken=null",
      "LastWriteTime": "2023-06-05T15:16:20.8642705Z"
    },
    {
      "FullName": "UnityEditor.CoreModule, Version=0.0.0.0, Culture=neutral, PublicKeyToken=null",
      "LastWriteTime": "2023-03-07T23:40:42Z"
    },
    {
      "FullName": "Unity.2D.SpriteShape.Runtime, Version=0.0.0.0, Culture=neutral, PublicKeyToken=null",
      "LastWriteTime": "2023-06-05T15:16:20.8373428Z"
    },
    {
      "FullName": "UnityEngine.SpriteShapeModule, Version=0.0.0.0, Culture=neutral, PublicKeyToken=null",
      "LastWriteTime": "2023-03-07T23:40:42Z"
    },
    {
      "FullName": "Unity.2D.Common.Editor, Version=0.0.0.0, Culture=neutral, PublicKeyToken=null",
      "LastWriteTime": "2023-06-05T15:16:20.8058899Z"
    },
    {
      "FullName": "Unity.2D.Psdimporter.Editor, Version=0.0.0.0, Culture=neutral, PublicKeyToken=null",
      "LastWriteTime": "2023-06-05T15:16:20.8233801Z"
    },
    {
      "FullName": "Unity.2D.Animation.Runtime, Version=0.0.0.0, Culture=neutral, PublicKeyToken=null",
      "LastWriteTime": "2023-06-05T15:16:20.8034337Z"
    }
  ],
  "Functions": [
    {
      "FullName": "Unity.Jobs.IJobExtensions+JobStruct`1[[PaintDotNet.Data.PhotoshopFileType.PDNAlphaMaskJob, PsdPlugin, Version=0.0.0.0, Culture=neutral, PublicKeyToken=null]], UnityEngine.CoreModule, Version=0.0.0.0, Culture=neutral, PublicKeyToken=null::Execute(PaintDotNet.Data.PhotoshopFileType.PDNAlphaMaskJob&, PsdPlugin, Version=0.0.0.0, Culture=neutral, PublicKeyToken=null|System.IntPtr, mscorlib, Version=4.0.0.0, Culture=neutral, PublicKeyToken=b77a5c561934e089|System.IntPtr, mscorlib, Version=4.0.0.0, Culture=neutral, PublicKeyToken=b77a5c561934e089|Unity.Jobs.LowLevel.Unsafe.JobRanges&, UnityEngine.CoreModule, Version=0.0.0.0, Culture=neutral, PublicKeyToken=null|System.Int32, mscorlib, Version=4.0.0.0, Culture=neutral, PublicKeyToken=b77a5c561934e089)",
      "ModuleOptionsHash": 15221144590354301703,
      "ModuleHash": "dcbaf8438047ba75a515a2023cbeb4e0",
      "LinkName": "B33AFCD7D8FB6AEB",
      "AssemblyDependencyIndices": [
        0,
        1,
        2,
        3
      ]
    },
    {
      "FullName": "Unity.Jobs.IJobExtensions+JobStruct`1[[UnityEditor.U2D.Animation.TriangulateJob, Unity.2D.Animation.Editor, Version=0.0.0.0, Culture=neutral, PublicKeyToken=null]], UnityEngine.CoreModule, Version=0.0.0.0, Culture=neutral, PublicKeyToken=null::Execute(UnityEditor.U2D.Animation.TriangulateJob&, Unity.2D.Animation.Editor, Version=0.0.0.0, Culture=neutral, PublicKeyToken=null|System.IntPtr, mscorlib, Version=4.0.0.0, Culture=neutral, PublicKeyToken=b77a5c561934e089|System.IntPtr, mscorlib, Version=4.0.0.0, Culture=neutral, PublicKeyToken=b77a5c561934e089|Unity.Jobs.LowLevel.Unsafe.JobRanges&, UnityEngine.CoreModule, Version=0.0.0.0, Culture=neutral, PublicKeyToken=null|System.Int32, mscorlib, Version=4.0.0.0, Culture=neutral, PublicKeyToken=b77a5c561934e089)",
      "ModuleOptionsHash": 15221144590354301703,
      "ModuleHash": "9ec0f6836b60cfba2675d01dd2112634",
      "LinkName": "49056CD1270901E4",
      "AssemblyDependencyIndices": [
        0,
        4,
        5,
        3,
        6,
        7
      ]
    },
    {
      "FullName": "Unity.Jobs.IJobExtensions+JobStruct`1[[UnityEditor.U2D.Animation.TessellateJob, Unity.2D.Animation.Editor, Version=0.0.0.0, Culture=neutral, PublicKeyToken=null]], UnityEngine.CoreModule, Version=0.0.0.0, Culture=neutral, PublicKeyToken=null::Execute(UnityEditor.U2D.Animation.TessellateJob&, Unity.2D.Animation.Editor, Version=0.0.0.0, Culture=neutral, PublicKeyToken=null|System.IntPtr, mscorlib, Version=4.0.0.0, Culture=neutral, PublicKeyToken=b77a5c561934e089|System.IntPtr, mscorlib, Version=4.0.0.0, Culture=neutral, PublicKeyToken=b77a5c561934e089|Unity.Jobs.LowLevel.Unsafe.JobRanges&, UnityEngine.CoreModule, Version=0.0.0.0, Culture=neutral, PublicKeyToken=null|System.Int32, mscorlib, Version=4.0.0.0, Culture=neutral, PublicKeyToken=b77a5c561934e089)",
      "ModuleOptionsHash": 15221144590354301703,
      "ModuleHash": "ab81d88a10a2a740faf7cda24c597da3",
      "LinkName": "750999B742A414C6",
      "AssemblyDependencyIndices": [
        0,
        4,
        3,
        5,
        6,
        7
      ]
    },
    {
      "FullName": "Unity.Burst.Intrinsics.X86, Unity.Burst, Version=0.0.0.0, Culture=neutral, PublicKeyToken=null::DoSetCSRTrampoline(System.Int32, mscorlib, Version=4.0.0.0, Culture=neutral, PublicKeyToken=b77a5c561934e089)",
      "ModuleOptionsHash": 15221144590354301703,
      "ModuleHash": "9922e6a562bc4195252ee08a9b539fac",
      "LinkName": "801E9A000BB37B05",
      "AssemblyDependencyIndices": [
        8,
        7,
        3
      ]
    },
    {
      "FullName": "Unity.Burst.Intrinsics.X86, Unity.Burst, Version=0.0.0.0, Culture=neutral, PublicKeyToken=null::DoGetCSRTrampoline()",
      "ModuleOptionsHash": 15221144590354301703,
      "ModuleHash": "9e254af92e25825622ee77d13f0d0c47",
      "LinkName": "CDCA4A5193BE5947",
      "AssemblyDependencyIndices": [
        8,
        7,
        3
      ]
    },
    {
      "FullName": "Unity.Jobs.IJobExtensions+JobStruct`1[[UnityEditor.U2D.Animation.BiharmonicsJob, Unity.2D.Animation.Editor, Version=0.0.0.0, Culture=neutral, PublicKeyToken=null]], UnityEngine.CoreModule, Version=0.0.0.0, Culture=neutral, PublicKeyToken=null::Execute(UnityEditor.U2D.Animation.BiharmonicsJob&, Unity.2D.Animation.Editor, Version=0.0.0.0, Culture=neutral, PublicKeyToken=null|System.IntPtr, mscorlib, Version=4.0.0.0, Culture=neutral, PublicKeyToken=b77a5c561934e089|System.IntPtr, mscorlib, Version=4.0.0.0, Culture=neutral, PublicKeyToken=b77a5c561934e089|Unity.Jobs.LowLevel.Unsafe.JobRanges&, UnityEngine.CoreModule, Version=0.0.0.0, Culture=neutral, PublicKeyToken=null|System.Int32, mscorlib, Version=4.0.0.0, Culture=neutral, PublicKeyToken=b77a5c561934e089)",
      "ModuleOptionsHash": 15221144590354301703,
      "ModuleHash": "b98cea4182b98e5aad950d3b08a5697e",
      "LinkName": "9C987EFE5F9A4A52",
      "AssemblyDependencyIndices": [
        0,
        4,
        9,
        3,
        6,
        7,
        8,
        5
      ]
    },
    {
      "FullName": "Unity.Jobs.IJobExtensions+JobStruct`1[[UnityEngine.U2D.SpriteShapeGenerator, Unity.2D.SpriteShape.Runtime, Version=0.0.0.0, Culture=neutral, PublicKeyToken=null]], UnityEngine.CoreModule, Version=0.0.0.0, Culture=neutral, PublicKeyToken=null::Execute(UnityEngine.U2D.SpriteShapeGenerator&, Unity.2D.SpriteShape.Runtime, Version=0.0.0.0, Culture=neutral, PublicKeyToken=null|System.IntPtr, mscorlib, Version=4.0.0.0, Culture=neutral, PublicKeyToken=b77a5c561934e089|System.IntPtr, mscorlib, Version=4.0.0.0, Culture=neutral, PublicKeyToken=b77a5c561934e089|Unity.Jobs.LowLevel.Unsafe.JobRanges&, UnityEngine.CoreModule, Version=0.0.0.0, Culture=neutral, PublicKeyToken=null|System.Int32, mscorlib, Version=4.0.0.0, Culture=neutral, PublicKeyToken=b77a5c561934e089)",
      "ModuleOptionsHash": 15221144590354301703,
      "ModuleHash": "9f104fa4076dc2154525d4751b71a78d",
      "LinkName": "104599FDEEB36FAE",
      "AssemblyDependencyIndices": [
        0,
        10,
        3,
        6,
        11,
        7,
        5
      ]
    },
    {
      "FullName": "Unity.Jobs.IJobParallelForExtensions+ParallelForJobStruct`1[[PaintDotNet.Data.PhotoshopFileType.PDNDecoderJob, PsdPlugin, Version=0.0.0.0, Culture=neutral, PublicKeyToken=null]], UnityEngine.CoreModule, Version=0.0.0.0, Culture=neutral, PublicKeyToken=null::Execute(PaintDotNet.Data.PhotoshopFileType.PDNDecoderJob&, PsdPlugin, Version=0.0.0.0, Culture=neutral, PublicKeyToken=null|System.IntPtr, mscorlib, Version=4.0.0.0, Culture=neutral, PublicKeyToken=b77a5c561934e089|System.IntPtr, mscorlib, Version=4.0.0.0, Culture=neutral, PublicKeyToken=b77a5c561934e089|Unity.Jobs.LowLevel.Unsafe.JobRanges&, UnityEngine.CoreModule, Version=0.0.0.0, Culture=neutral, PublicKeyToken=null|System.Int32, mscorlib, Version=4.0.0.0, Culture=neutral, PublicKeyToken=b77a5c561934e089)",
      "ModuleOptionsHash": 15221144590354301703,
      "ModuleHash": "4b9d816985255036255553048d54425e",
      "LinkName": "4B57F329150937D0",
      "AssemblyDependencyIndices": [
        0,
        1,
        3
      ]
    },
    {
      "FullName": "Unity.Jobs.IJobParallelForExtensions+ParallelForJobStruct`1[[UnityEditor.U2D.Common.FindTightRectJob, Unity.2D.Common.Editor, Version=0.0.0.0, Culture=neutral, PublicKeyToken=null]], UnityEngine.CoreModule, Version=0.0.0.0, Culture=neutral, PublicKeyToken=null::Execute(UnityEditor.U2D.Common.FindTightRectJob&, Unity.2D.Common.Editor, Version=0.0.0.0, Culture=neutral, PublicKeyToken=null|System.IntPtr, mscorlib, Version=4.0.0.0, Culture=neutral, PublicKeyToken=b77a5c561934e089|System.IntPtr, mscorlib, Version=4.0.0.0, Culture=neutral, PublicKeyToken=b77a5c561934e089|Unity.Jobs.LowLevel.Unsafe.JobRanges&, UnityEngine.CoreModule, Version=0.0.0.0, Culture=neutral, PublicKeyToken=null|System.Int32, mscorlib, Version=4.0.0.0, Culture=neutral, PublicKeyToken=b77a5c561934e089)",
      "ModuleOptionsHash": 15221144590354301703,
      "ModuleHash": "87b35fe3b43c2257a66679c912fc9d3f",
      "LinkName": "FBD0B2A6246F6223",
      "AssemblyDependencyIndices": [
        0,
        12,
        3
      ]
    },
    {
      "FullName": "Unity.Jobs.IJobParallelForExtensions+ParallelForJobStruct`1[[UnityEditor.U2D.PSD.ExtractLayerTask+ConvertBufferJob, Unity.2D.Psdimporter.Editor, Version=0.0.0.0, Culture=neutral, PublicKeyToken=null]], UnityEngine.CoreModule, Version=0.0.0.0, Culture=neutral, PublicKeyToken=null::Execute(UnityEditor.U2D.PSD.ExtractLayerTask+ConvertBufferJob&, Unity.2D.Psdimporter.Editor, Version=0.0.0.0, Culture=neutral, PublicKeyToken=null|System.IntPtr, mscorlib, Version=4.0.0.0, Culture=neutral, PublicKeyToken=b77a5c561934e089|System.IntPtr, mscorlib, Version=4.0.0.0, Culture=neutral, PublicKeyToken=b77a5c561934e089|Unity.Jobs.LowLevel.Unsafe.JobRanges&, UnityEngine.CoreModule, Version=0.0.0.0, Culture=neutral, PublicKeyToken=null|System.Int32, mscorlib, Version=4.0.0.0, Culture=neutral, PublicKeyToken=b77a5c561934e089)",
      "ModuleOptionsHash": 15221144590354301703,
      "ModuleHash": "ee7ce8a79c9bbfd5da954329bce35f9e",
      "LinkName": "85C34B2AEC2FC609",
      "AssemblyDependencyIndices": [
        0,
        13,
        3,
        6
      ]
    },
    {
      "FullName": "Unity.Jobs.IJobParallelForExtensions+ParallelForJobStruct`1[[UnityEditor.U2D.PSD.FlattenImageTask+FlattenImageInternalJob, Unity.2D.Psdimporter.Editor, Version=0.0.0.0, Culture=neutral, PublicKeyToken=null]], UnityEngine.CoreModule, Version=0.0.0.0, Culture=neutral, PublicKeyToken=null::Execute(UnityEditor.U2D.PSD.FlattenImageTask+FlattenImageInternalJob&, Unity.2D.Psdimporter.Editor, Version=0.0.0.0, Culture=neutral, PublicKeyToken=null|System.IntPtr, mscorlib, Version=4.0.0.0, Culture=neutral, PublicKeyToken=b77a5c561934e089|System.IntPtr, mscorlib, Version=4.0.0.0, Culture=neutral, PublicKeyToken=b77a5c561934e089|Unity.Jobs.LowLevel.Unsafe.JobRanges&, UnityEngine.CoreModule, Version=0.0.0.0, Culture=neutral, PublicKeyToken=null|System.Int32, mscorlib, Version=4.0.0.0, Culture=neutral, PublicKeyToken=b77a5c561934e089)",
      "ModuleOptionsHash": 15221144590354301703,
      "ModuleHash": "17ff2c539c05612ad2f7bc009d0ac17c",
      "LinkName": "18C2EC3E41FEE880",
      "AssemblyDependencyIndices": [
        0,
        13,
        3,
        6
      ]
    },
    {
      "FullName": "UnityEditor.U2D.Common.ImagePacker, Unity.2D.Common.Editor, Version=0.0.0.0, Culture=neutral, PublicKeyToken=null::BurstedBlit(UnityEngine.Color32*, UnityEngine.CoreModule, Version=0.0.0.0, Culture=neutral, PublicKeyToken=null|Unity.Mathematics.int4&, Unity.Mathematics, Version=1.0.0.0, Culture=neutral, PublicKeyToken=null|Unity.Mathematics.int4&, Unity.Mathematics, Version=1.0.0.0, Culture=neutral, PublicKeyToken=null|System.Int32, mscorlib, Version=4.0.0.0, Culture=neutral, PublicKeyToken=b77a5c561934e089|System.Int32, mscorlib, Version=4.0.0.0, Culture=neutral, PublicKeyToken=b77a5c561934e089|UnityEngine.Color32*, UnityEngine.CoreModule, Version=0.0.0.0, Culture=neutral, PublicKeyToken=null)",
      "ModuleOptionsHash": 15221144590354301703,
      "ModuleHash": "33063457f96fde6b50df127ab0491f2d",
      "LinkName": "8115CAFF6B65630B",
      "AssemblyDependencyIndices": [
        12,
        3,
        0,
        6,
        8,
        7,
        9
      ]
    },
    {
      "FullName": "UnityEngine.U2D.Animation.BurstedSpriteSkinUtilities, Unity.2D.Animation.Runtime, Version=0.0.0.0, Culture=neutral, PublicKeyToken=null::ValidateBoneWeights(Unity.Collections.NativeSlice`1[[UnityEngine.BoneWeight, UnityEngine.CoreModule, Version=0.0.0.0, Culture=neutral, PublicKeyToken=null]]&, UnityEngine.CoreModule, Version=0.0.0.0, Culture=neutral, PublicKeyToken=null|System.Int32, mscorlib, Version=4.0.0.0, Culture=neutral, PublicKeyToken=b77a5c561934e089)",
      "ModuleOptionsHash": 15221144590354301703,
      "ModuleHash": "dfeaa233c36c85b790914f04dcc8aca4",
      "LinkName": "22C1BA9B75E8DDE1",
      "AssemblyDependencyIndices": [
        14,
        7,
        3,
        0,
        8,
        9
      ]
    },
    {
      "FullName": "UnityEditor.U2D.Animation.TriangulationUtility, Unity.2D.Animation.Editor, Version=0.0.0.0, Culture=neutral, PublicKeyToken=null::ValidateCollinear(Unity.Mathematics.float2*, Unity.Mathematics, Version=1.0.0.0, Culture=neutral, PublicKeyToken=null|System.Int32, mscorlib, Version=4.0.0.0, Culture=neutral, PublicKeyToken=b77a5c561934e089|System.Single, mscorlib, Version=4.0.0.0, Culture=neutral, PublicKeyToken=b77a5c561934e089)",
      "ModuleOptionsHash": 15221144590354301703,
      "ModuleHash": "7b07b09b8898412ddf2c20180c57a4c2",
      "LinkName": "7F9BDFAB3718C423",
      "AssemblyDependencyIndices": [
        4,
        3,
        6,
        8,
        7,
        0,
        9
      ]
    },
    {
      "FullName": "UnityEditor.U2D.Animation.TriangulationUtility, Unity.2D.Animation.Editor, Version=0.0.0.0, Culture=neutral, PublicKeyToken=null::TessellateBurst(Unity.Collections.Allocator, UnityEngine.CoreModule, Version=0.0.0.0, Culture=neutral, PublicKeyToken=null|Unity.Mathematics.float2*, Unity.Mathematics, Version=1.0.0.0, Culture=neutral, PublicKeyToken=null|System.Int32, mscorlib, Version=4.0.0.0, Culture=neutral, PublicKeyToken=b77a5c561934e089|Unity.Mathematics.int2*, Unity.Mathematics, Version=1.0.0.0, Culture=neutral, PublicKeyToken=null|System.Int32, mscorlib, Version=4.0.0.0, Culture=neutral, PublicKeyToken=b77a5c561934e089|Unity.Mathematics.float2*, Unity.Mathematics, Version=1.0.0.0, Culture=neutral, PublicKeyToken=null|System.Int32*, mscorlib, Version=4.0.0.0, Culture=neutral, PublicKeyToken=b77a5c561934e089|Unity.Mathematics.int2*, Unity.Mathematics, Version=1.0.0.0, Culture=neutral, PublicKeyToken=null|System.Int32, mscorlib, Version=4.0.0.0, Culture=neutral, PublicKeyToken=b77a5c561934e089|Unity.Mathematics.int3*, Unity.Mathematics, Version=1.0.0.0, Culture=neutral, PublicKeyToken=null)",
      "ModuleOptionsHash": 15221144590354301703,
      "ModuleHash": "6ce94fb7fe58697dcdfa0d047ca1e25f",
      "LinkName": "7D2E04AB7759F565",
      "AssemblyDependencyIndices": [
        4,
        3,
        0,
        6,
        7,
        8,
        5,
        9
      ]
    },
    {
      "FullName": "UnityEditor.U2D.Animation.TriangulationUtility, Unity.2D.Animation.Editor, Version=0.0.0.0, Culture=neutral, PublicKeyToken=null::SubdivideBurst(Unity.Collections.Allocator, UnityEngine.CoreModule, Version=0.0.0.0, Culture=neutral, PublicKeyToken=null|Unity.Mathematics.float2*, Unity.Mathematics, Version=1.0.0.0, Culture=neutral, PublicKeyToken=null|System.Int32, mscorlib, Version=4.0.0.0, Culture=neutral, PublicKeyToken=b77a5c561934e089|Unity.Mathematics.int2*, Unity.Mathematics, Version=1.0.0.0, Culture=neutral, PublicKeyToken=null|System.Int32, mscorlib, Version=4.0.0.0, Culture=neutral, PublicKeyToken=b77a5c561934e089|Unity.Mathematics.float2*, Unity.Mathematics, Version=1.0.0.0, Culture=neutral, PublicKeyToken=null|System.Int32*, mscorlib, Version=4.0.0.0, Culture=neutral, PublicKeyToken=b77a5c561934e089|Unity.Mathematics.int2*, Unity.Mathematics, Version=1.0.0.0, Culture=neutral, PublicKeyToken=null|System.Int32, mscorlib, Version=4.0.0.0, Culture=neutral, PublicKeyToken=b77a5c561934e089|System.Single, mscorlib, Version=4.0.0.0, Culture=neutral, PublicKeyToken=b77a5c561934e089|System.Single, mscorlib, Version=4.0.0.0, Culture=neutral, PublicKeyToken=b77a5c561934e089|System.Int32, mscorlib, Version=4.0.0.0, Culture=neutral, PublicKeyToken=b77a5c561934e089|System.Int32, mscorlib, Version=4.0.0.0, Culture=neutral, PublicKeyToken=b77a5c561934e089|Unity.Mathematics.int3*, Unity.Mathematics, Version=1.0.0.0, Culture=neutral, PublicKeyToken=null)",
      "ModuleOptionsHash": 15221144590354301703,
      "ModuleHash": "0670d6f86023baa5893bc8f12a7083be",
      "LinkName": "4E9252389FAD9FEE",
      "AssemblyDependencyIndices": [
        4,
        3,
        0,
        6,
        8,
        7,
        5,
        9
      ]
    },
    {
      "FullName": "UnityEditor.U2D.Animation.BoundedBiharmonicWeightsGenerator, Unity.2D.Animation.Editor, Version=0.0.0.0, Culture=neutral, PublicKeyToken=null::SampleBones_(Unity.Mathematics.float2*, Unity.Mathematics, Version=1.0.0.0, Culture=neutral, PublicKeyToken=null|Unity.Mathematics.int2*, Unity.Mathematics, Version=1.0.0.0, Culture=neutral, PublicKeyToken=null|System.Int32, mscorlib, Version=4.0.0.0, Culture=neutral, PublicKeyToken=b77a5c561934e089|System.Int32, mscorlib, Version=4.0.0.0, Culture=neutral, PublicKeyToken=b77a5c561934e089|Unity.Mathematics.float2*, Unity.Mathematics, Version=1.0.0.0, Culture=neutral, PublicKeyToken=null)",
      "ModuleOptionsHash": 15221144590354301703,
      "ModuleHash": "f136e22bd1b73cb9bb1d2618822a9a37",
      "LinkName": "4C542F1631655C96",
      "AssemblyDependencyIndices": [
        4,
        3,
        6,
        7,
        8,
        0,
        9
      ]
    },
    {
      "FullName": "UnityEditor.U2D.Animation.BoundedBiharmonicWeightsGenerator, Unity.2D.Animation.Editor, Version=0.0.0.0, Culture=neutral, PublicKeyToken=null::TriangulateSamplers_(Unity.Mathematics.float2*, Unity.Mathematics, Version=1.0.0.0, Culture=neutral, PublicKeyToken=null|System.Int32, mscorlib, Version=4.0.0.0, Culture=neutral, PublicKeyToken=b77a5c561934e089|Unity.Mathematics.float2*, Unity.Mathematics, Version=1.0.0.0, Culture=neutral, PublicKeyToken=null|System.Int32&, mscorlib, Version=4.0.0.0, Culture=neutral, PublicKeyToken=b77a5c561934e089|System.Int32*, mscorlib, Version=4.0.0.0, Culture=neutral, PublicKeyToken=b77a5c561934e089|System.Int32&, mscorlib, Version=4.0.0.0, Culture=neutral, PublicKeyToken=b77a5c561934e089)",
      "ModuleOptionsHash": 15221144590354301703,
      "ModuleHash": "c24cf147ec57d6852835341091819d49",
      "LinkName": "0DF0BB6E3E9C95ED",
      "AssemblyDependencyIndices": [
        4,
        3,
        6,
        7,
        8,
        5,
        0,
        9
      ]
    },
    {
      "FullName": "UnityEditor.U2D.Animation.BoundedBiharmonicWeightsGenerator, Unity.2D.Animation.Editor, Version=0.0.0.0, Culture=neutral, PublicKeyToken=null::TriangulateInternal_(System.Void*, mscorlib, Version=4.0.0.0, Culture=neutral, PublicKeyToken=b77a5c561934e089|System.Int32, mscorlib, Version=4.0.0.0, Culture=neutral, PublicKeyToken=b77a5c561934e089|System.Void*, mscorlib, Version=4.0.0.0, Culture=neutral, PublicKeyToken=b77a5c561934e089|System.Void*, mscorlib, Version=4.0.0.0, Culture=neutral, PublicKeyToken=b77a5c561934e089|System.Int32&, mscorlib, Version=4.0.0.0, Culture=neutral, PublicKeyToken=b77a5c561934e089)",
      "ModuleOptionsHash": 15221144590354301703,
      "ModuleHash": "cdea4d369e188efb8d46fa15d3585e5c",
      "LinkName": "9C009FC40CDEA715",
      "AssemblyDependencyIndices": [
        4,
        3,
        8,
        7,
        6,
        5,
        0,
        9
      ]
    },
    {
      "FullName": "UnityEditor.U2D.Animation.BoundedBiharmonicWeightsGenerator, Unity.2D.Animation.Editor, Version=0.0.0.0, Culture=neutral, PublicKeyToken=null::CalculateInternal_(Unity.Mathematics.float2*, Unity.Mathematics, Version=1.0.0.0, Culture=neutral, PublicKeyToken=null|System.Int32, mscorlib, Version=4.0.0.0, Culture=neutral, PublicKeyToken=b77a5c561934e089|System.Int32*, mscorlib, Version=4.0.0.0, Culture=neutral, PublicKeyToken=b77a5c561934e089|System.Int32, mscorlib, Version=4.0.0.0, Culture=neutral, PublicKeyToken=b77a5c561934e089|Unity.Mathematics.float2*, Unity.Mathematics, Version=1.0.0.0, Culture=neutral, PublicKeyToken=null|System.Int32, mscorlib, Version=4.0.0.0, Culture=neutral, PublicKeyToken=b77a5c561934e089|Unity.Mathematics.int2*, Unity.Mathematics, Version=1.0.0.0, Culture=neutral, PublicKeyToken=null|System.Int32, mscorlib, Version=4.0.0.0, Culture=neutral, PublicKeyToken=b77a5c561934e089|System.Int32*, mscorlib, Version=4.0.0.0, Culture=neutral, PublicKeyToken=b77a5c561934e089|System.Int32, mscorlib, Version=4.0.0.0, Culture=neutral, PublicKeyToken=b77a5c561934e089|System.Int32, mscorlib, Version=4.0.0.0, Culture=neutral, PublicKeyToken=b77a5c561934e089|System.Int32, mscorlib, Version=4.0.0.0, Culture=neutral, PublicKeyToken=b77a5c561934e089|System.Int32, mscorlib, Version=4.0.0.0, Culture=neutral, PublicKeyToken=b77a5c561934e089|UnityEngine.BoneWeight*, UnityEngine.CoreModule, Version=0.0.0.0, Culture=neutral, PublicKeyToken=null|System.Int32, mscorlib, Version=4.0.0.0, Culture=neutral, PublicKeyToken=b77a5c561934e089)",
      "ModuleOptionsHash": 15221144590354301703,
      "ModuleHash": "0250b0f7e2bed93036fdaaf15b17b347",
      "LinkName": "1275254E9CEB788C",
      "AssemblyDependencyIndices": [
        4,
        3,
        6,
        0,
        7,
        8,
        5,
        9
      ]
    }
  ]
}